…
Think about which column names you want to 'pivot' into a column of column names. In this case, we will be pivotting every column starting with gdpPercap, lifeExp, and pop into a column of column names and a column of values for each. 

To do so, we start out by making a vector that selects the columns that we want (using the `starts_with()` function to make our lives easier), and then set the new column names we are creating to "obstype_year" and "obs_values" for the name and value column names.


```r
gap_wide %>%
  pivot_longer(cols = c(starts_with("gdpPercap"), 
                        starts_with("lifeExp"), 
                        starts_with("pop")),
               names_to = "obstype_year", values_to = "obs_values")
```

```
## # A tibble: 5,112 x 4
##    continent country obstype_year   obs_values
##    <chr>     <chr>   <chr>               <dbl>
##  1 Africa    Algeria gdpPercap_1952      2449.
##  2 Africa    Algeria gdpPercap_1957      3014.
##  3 Africa    Algeria gdpPercap_1962      2551.
##  4 Africa    Algeria gdpPercap_1967      3247.
##  5 Africa    Algeria gdpPercap_1972      4183.
##  6 Africa    Algeria gdpPercap_1977      4910.
##  7 Africa    Algeria gdpPercap_1982      5745.
##  8 Africa    Algeria gdpPercap_1987      5681.
##  9 Africa    Algeria gdpPercap_1992      5023.
## 10 Africa    Algeria gdpPercap_1997      4797.
## # … with 5,102 more rows
```

Another way of doing the same thing would be to select every column except for country and continent. The following returns the same long-format dataset as above:

```r
gap_wide %>%
  pivot_longer(cols = c(-continent, -country),
               names_to = "obstype_year", values_to = "obs_values")
```

```
## # A tibble: 5,112 x 4
##    continent country obstype_year   obs_values
##    <chr>     <chr>   <chr>               <dbl>
##  1 Africa    Algeria gdpPercap_1952      2449.
##  2 Africa    Algeria gdpPercap_1957      3014.
##  3 Africa    Algeria gdpPercap_1962      2551.
##  4 Africa    Algeria gdpPercap_1967      3247.
##  5 Africa    Algeria gdpPercap_1972      4183.
##  6 Africa    Algeria gdpPercap_1977      4910.
##  7 Africa    Algeria gdpPercap_1982      5745.
##  8 Africa    Algeria gdpPercap_1987      5681.
##  9 Africa    Algeria gdpPercap_1992      5023.
## 10 Africa    Algeria gdpPercap_1997      4797.
## # … with 5,102 more rows
```

Finally, we currently have a composite variable of `obstype_year`, which is the combined name of the observation type (i.e. gdpPercap, lifeExp, pop) and the year (i.e. 1952, 1957, etc.). To separate the two, we can use the `separate()` function.


```r
gap_wide %>%
  pivot_longer(cols = c(starts_with("gdpPercap"), 
                        starts_with("lifeExp"), 
                        starts_with("pop")),
               names_to = "obstype_year", values_to = "obs_values") %>%
	separate(obstype_year, into = c("obs_type", "year"), sep = "_")
```

```
## # A tibble: 5,112 x 5
##    continent country obs_type  year  obs_values
##    <chr>     <chr>   <chr>     <chr>      <dbl>
##  1 Africa    Algeria gdpPercap 1952       2449.
##  2 Africa    Algeria gdpPercap 1957       3014.
##  3 Africa    Algeria gdpPercap 1962       2551.
##  4 Africa    Algeria gdpPercap 1967       3247.
##  5 Africa    Algeria gdpPercap 1972       4183.
##  6 Africa    Algeria gdpPercap 1977       4910.
##  7 Africa    Algeria gdpPercap 1982       5745.
##  8 Africa    Algeria gdpPercap 1987       5681.
##  9 Africa    Algeria gdpPercap 1992       5023.
## 10 Africa    Algeria gdpPercap 1997       4797.
## # … with 5,102 more rows
```
…
